{
  "2008": "SE Marsh",
  "2009": "YK Pathan",
  "2010": "SR Tendulkar",
  "2011": "CH Gayle",
  "2012": "CH Gayle",
  "2013": "MEK Hussey",
  "2014": "GJ Maxwell",
  "2015": "DA Warner",
  "2016": "V Kohli",
  "2017": "BA Stokes NM Coulter-Nile"
}